p = (1,1,1)
p = (1,1,2)
p = (1,2,1)
p = (1,2,2)
p = (2,1,1)
p = (2,1,2)
p = (2,2,1)
p = (2,2,2)
---
p = (1,1,1)
p = (1,1,2)
p = (1,2,1)
p = (1,2,2)
p = (2,1,1)
p = (2,1,2)
p = (2,2,1)
p = (2,2,2)
---
d is_rectangular: true
p = (1,1,1)
p = (1,1,2)
p = (1,1,3)
p = (1,2,1)
p = (1,2,2)
p = (1,2,3)
p = (1,3,1)
p = (1,3,2)
p = (1,3,3)
p = (2,1,1)
p = (2,1,2)
p = (2,1,3)
p = (2,2,1)
p = (2,2,2)
p = (2,2,3)
p = (2,3,1)
p = (2,3,2)
p = (2,3,3)
p = (3,1,1)
p = (3,1,2)
p = (3,1,3)
p = (3,2,1)
p = (3,2,2)
p = (3,2,3)
p = (3,3,1)
p = (3,3,2)
p = (3,3,3)
---
d2 is_rectangular: true
p = (1,1,1)
p = (1,1,2)
p = (1,1,3)
p = (1,2,1)
p = (1,2,2)
p = (1,2,3)
p = (1,3,1)
p = (1,3,2)
p = (1,3,3)
p = (2,1,1)
p = (2,1,2)
p = (2,1,3)
p = (2,2,1)
p = (2,2,2)
p = (2,2,3)
p = (2,3,1)
p = (2,3,2)
p = (2,3,3)
p = (3,1,1)
p = (3,1,2)
p = (3,1,3)
p = (3,2,1)
p = (3,2,2)
p = (3,2,3)
p = (3,3,1)
p = (3,3,2)
p = (3,3,3)
---
derr is_rectangular: false
Runtime: (Error) not a rectdomain in cast.
